src/cpu_tb.vcd
$date
	Thu Jun 26 01:31:30 2025
$end
$version
	Icarus Verilog
$end
$timescale
	1ps
$end
$scope module tb_RISC_V_CPU $end
$var reg 1 ! CLK $end
$var reg 1 " RESET $end
$scope module uut $end
$var wire 1 ! CLK $end
$var wire 1 " RESET $end
$var wire 2 # WB_W_REG [1:0] $end
$var wire 1 $ WB_REG_EN $end
$var wire 32 % WB_PC [31:0] $end
$var wire 32 & WB_MEM_OUT [31:0] $end
$var wire 32 ' WB_DATA [31:0] $end
$var wire 5 ( WB_ADD [4:0] $end
$var wire 32 ) PC_I_4 [31:0] $end
$var wire 32 * PC_I [31:0] $end
$var wire 32 + MUX_OUT [31:0] $end
$var wire 2 , MA_W_REG [1:0] $end
$var wire 32 - MA_SIGN [31:0] $end
$var wire 1 . MA_REG_EN $end
$var wire 32 / MA_PC_4 [31:0] $end
$var wire 32 0 MA_PC [31:0] $end
$var wire 2 1 MA_MW [1:0] $end
$var wire 2 2 MA_MR [1:0] $end
$var wire 32 3 MA_MEM_OUT [31:0] $end
$var wire 32 4 MA_DATA [31:0] $end
$var wire 5 5 MA_ADD [4:0] $end
$var wire 3 6 IMME_SELECT [2:0] $end
$var wire 2 7 IF_W_REG [1:0] $end
$var wire 32 8 IF_SIGN [31:0] $end
$var wire 1 9 IF_REG_EN $end
$var wire 32 : IF_PC [31:0] $end
$var wire 1 ; IF_OP2 $end
$var wire 1 < IF_OP1 $end
$var wire 2 = IF_MW [1:0] $end
$var wire 2 > IF_MR [1:0] $end
$var wire 32 ? IF_INSTR [31:0] $end
$var wire 32 @ IF_D2 [31:0] $end
$var wire 32 A IF_D1 [31:0] $end
$var wire 3 B IF_BS [2:0] $end
$var wire 5 C IF_ALU [4:0] $end
$var wire 32 D IFD_INSTR [31:0] $end
$var wire 32 E ID_PC [31:0] $end
$var wire 2 F EX_W_REG [1:0] $end
$var wire 32 G EX_SIGN [31:0] $end
$var wire 1 H EX_REG_EN $end
$var wire 32 I EX_PC [31:0] $end
$var wire 1 J EX_OP2 $end
$var wire 1 K EX_OP1 $end
$var wire 2 L EX_MW [1:0] $end
$var wire 2 M EX_MR [1:0] $end
$var wire 32 N EX_DATA [31:0] $end
$var wire 32 O EX_D2 [31:0] $end
$var wire 32 P EX_D1 [31:0] $end
$var wire 3 Q EX_BS [2:0] $end
$var wire 5 R EX_ALU [4:0] $end
$var wire 32 S EX_AL2 [31:0] $end
$var wire 32 T EX_AL1 [31:0] $end
$var wire 5 U EX_ADD [4:0] $end
$var wire 1 V BR_SEL $end
$scope module PC $end
$var wire 1 W BUSYWAIT $end
$var wire 1 ! CLOCK $end
$var wire 1 " RESET $end
$var wire 32 X PC [31:0] $end
$var reg 32 Y NEXTPC [31:0] $end
$upscope $end
$scope module adder1 $end
$var wire 32 Z DATA [31:0] $end
$var wire 32 [ OUT [31:0] $end
$upscope $end
$scope module adder2 $end
$var wire 32 \ OUT [31:0] $end
$var wire 32 ] DATA [31:0] $end
$upscope $end
$scope module alu $end
$var wire 1 ! CLK $end
$var wire 1 " RESET $end
$var wire 5 ^ SELECT [4:0] $end
$var wire 32 _ DATA2 [31:0] $end
$var wire 32 ` DATA1 [31:0] $end
$var reg 32 a RESULT [31:0] $end
$upscope $end
$scope module branch $end
$var wire 3 b op [2:0] $end
$var wire 32 c data2 [31:0] $end
$var wire 32 d data1 [31:0] $end
$var wire 1 e BNE $end
$var wire 1 f BLTU $end
$var wire 1 g BLT $end
$var wire 1 h BGEU $end
$var wire 1 i BGE $end
$var wire 1 j BEQ $end
$var reg 1 V out $end
$upscope $end
$scope module cu $end
$var wire 7 k OPCODE [6:0] $end
$var wire 32 l INSTRUCTION [31:0] $end
$var wire 7 m FUNCT7 [6:0] $end
$var wire 3 n FUNCT3 [2:0] $end
$var reg 5 o ALUOP [4:0] $end
$var reg 3 p BR_SEL [2:0] $end
$var reg 3 q IMME_SELECT [2:0] $end
$var reg 2 r MEM_READ [1:0] $end
$var reg 2 s MEM_WRITE [1:0] $end
$var reg 1 < MUX1_SELECT $end
$var reg 1 ; MUX2_SELECT $end
$var reg 2 t WB_SEL [1:0] $end
$var reg 1 9 WRITEENABLE $end
$upscope $end
$scope module ex_ma $end
$var wire 1 ! CLK $end
$var wire 32 u EX_DATA [31:0] $end
$var wire 1 " RESET $end
$var wire 2 v EX_W_REG [1:0] $end
$var wire 32 w EX_SIGN [31:0] $end
$var wire 1 H EX_REG_EN $end
$var wire 32 x EX_PC [31:0] $end
$var wire 2 y EX_MW [1:0] $end
$var wire 2 z EX_MR [1:0] $end
$var wire 5 { EX_ADD [4:0] $end
$var reg 5 | MA_ADD [4:0] $end
$var reg 32 } MA_DATA [31:0] $end
$var reg 2 ~ MA_MR [1:0] $end
$var reg 2 !" MA_MW [1:0] $end
$var reg 32 "" MA_PC [31:0] $end
$var reg 1 . MA_REG_EN $end
$var reg 32 #" MA_SIGN [31:0] $end
$var reg 2 $" MA_W_REG [1:0] $end
$upscope $end
$scope module if_ex $end
$var wire 1 ! CLK $end
$var wire 5 %" IF_ADD [4:0] $end
$var wire 5 &" IF_ALU [4:0] $end
$var wire 3 '" IF_BS [2:0] $end
$var wire 2 (" IF_MR [1:0] $end
$var wire 2 )" IF_MW [1:0] $end
$var wire 1 < IF_OP1 $end
$var wire 1 ; IF_OP2 $end
$var wire 1 9 IF_REG_EN $end
$var wire 2 *" IF_W_REG [1:0] $end
$var wire 1 " RESET $end
$var wire 32 +" IF_SIGN [31:0] $end
$var wire 32 ," IF_PC [31:0] $end
$var wire 32 -" IF_D2 [31:0] $end
$var wire 32 ." IF_D1 [31:0] $end
$var reg 5 /" EX_ADD [4:0] $end
$var reg 5 0" EX_ALU [4:0] $end
$var reg 3 1" EX_BS [2:0] $end
$var reg 32 2" EX_D1 [31:0] $end
$var reg 32 3" EX_D2 [31:0] $end
$var reg 2 4" EX_MR [1:0] $end
$var reg 2 5" EX_MW [1:0] $end
$var reg 1 K EX_OP1 $end
$var reg 1 J EX_OP2 $end
$var reg 32 6" EX_PC [31:0] $end
$var reg 1 H EX_REG_EN $end
$var reg 32 7" EX_SIGN [31:0] $end
$var reg 2 8" EX_W_REG [1:0] $end
$upscope $end
$scope module if_id $end
$var wire 1 ! CLK $end
$var wire 32 9" IF_PC [31:0] $end
$var wire 1 " RESET $end
$var wire 32 :" IF_INSTR [31:0] $end
$var reg 32 ;" ID_INSTR [31:0] $end
$var reg 32 <" ID_PC [31:0] $end
$upscope $end
$scope module inst_mem $end
$var wire 32 =" ADDR [31:0] $end
$var wire 1 ! CLK $end
$var wire 1 " RESET $end
$var reg 32 >" INSTRUCTION [31:0] $end
$upscope $end
$scope module m3 $end
$var wire 32 ?" Input1 [31:0] $end
$var wire 32 @" Input2 [31:0] $end
$var wire 1 V Select $end
$var reg 32 A" Answer [31:0] $end
$upscope $end
$scope module ma_wb $end
$var wire 1 ! CLK $end
$var wire 5 B" MA_ADD [4:0] $end
$var wire 32 C" MA_DATA [31:0] $end
$var wire 32 D" MA_PC [31:0] $end
$var wire 1 . MA_REG_EN $end
$var wire 2 E" MA_W_REG [1:0] $end
$var wire 1 " RESET $end
$var wire 32 F" MA_MEM_OUT [31:0] $end
$var reg 5 G" WB_ADD [4:0] $end
$var reg 32 H" WB_DATA [31:0] $end
$var reg 32 I" WB_MEM_OUT [31:0] $end
$var reg 32 J" WB_PC [31:0] $end
$var reg 1 $ WB_REG_EN $end
$var reg 2 K" WB_W_REG [1:0] $end
$upscope $end
$scope module mx1 $end
$var wire 32 L" Input1 [31:0] $end
$var wire 32 M" Input2 [31:0] $end
$var wire 1 K Select $end
$var reg 32 N" Answer [31:0] $end
$upscope $end
$scope module mx2 $end
$var wire 32 O" Input1 [31:0] $end
$var wire 32 P" Input2 [31:0] $end
$var wire 1 J Select $end
$var reg 32 Q" Answer [31:0] $end
$upscope $end
$scope module reg_file $end
$var wire 5 R" ADDR1 [4:0] $end
$var wire 5 S" ADDR2 [4:0] $end
$var wire 5 T" ADDRW [4:0] $end
$var wire 1 ! CLK $end
$var wire 32 U" OUT1 [31:0] $end
$var wire 32 V" OUT2 [31:0] $end
$var wire 1 " RESET $end
$var wire 1 $ WRITE $end
$var wire 32 W" IN [31:0] $end
$var integer 32 X" bit [31:0] $end
$upscope $end
$scope module rom $end
$var wire 32 Y" ADDR [31:0] $end
$var wire 1 ! CLK $end
$var wire 32 Z" DATA_IN [31:0] $end
$var wire 2 [" READ [1:0] $end
$var wire 1 " RESET $end
$var wire 2 \" WRITE [1:0] $end
$var reg 32 ]" DATA_OUT [31:0] $end
$upscope $end
$scope module sign $end
$var wire 3 ^" imm_sel [2:0] $end
$var wire 32 _" inst [31:0] $end
$var wire 20 `" u_field [19:0] $end
$var wire 5 a" shamt_val [4:0] $end
$var wire 12 b" s_field [11:0] $end
$var wire 12 c" i_field [11:0] $end
$var parameter 3 d" B_TYPE $end
$var parameter 3 e" I_TYPE $end
$var parameter 3 f" J_TYPE $end
$var parameter 3 g" SHAMT $end
$var parameter 3 h" S_TYPE $end
$var parameter 3 i" U_TYPE $end
$var reg 32 j" imm_ext [31:0] $end
$upscope $end
$scope module tri_mux $end
$var wire 32 k" Input1 [31:0] $end
$var wire 32 l" Input2 [31:0] $end
$var wire 32 m" Input3 [31:0] $end
$var wire 2 n" Select [1:0] $end
$var reg 32 o" Answer [31:0] $end
$upscope $end
$upscope $end
$upscope $end
$enddefinitions $end
$comment Show the parameter values. $end
$dumpall
b0 i"
b100 h"
b101 g"
b1 f"
b10 e"
b11 d"
$end
#0
$dumpvars
b0 o"
b0 n"
b0 m"
b0 l"
b0 k"
b0 j"
b0 c"
b0 b"
b0 a"
b0 `"
b0 _"
b0 ^"
b0 ]"
b0 \"
b0 ["
b0 Z"
b0 Y"
bx X"
b0 W"
bx V"
bx U"
b0 T"
b0 S"
b0 R"
b0 Q"
b0 P"
b0 O"
b0 N"
b0 M"
b0 L"
b0 K"
b0 J"
b0 I"
b0 H"
b0 G"
b0 F"
b0 E"
bx D"
b0 C"
b0 B"
bx A"
b0 @"
bx ?"
bx >"
bx ="
b0 <"
b0 ;"
bx :"
bx 9"
b0 8"
b0 7"
b0 6"
b0 5"
b0 4"
b0 3"
b0 2"
b0 1"
b0 0"
b0 /"
bx ."
bx -"
b0 ,"
b0 +"
b1 *"
b0 )"
b0 ("
b11 '"
b0 &"
b0 %"
b0 $"
b0 #"
b0 ""
b0 !"
b0 ~
b0 }
b0 |
b0 {
b0 z
b0 y
b0 x
b0 w
b0 v
b0 u
b1 t
b0 s
b0 r
b0 q
b11 p
b0 o
b0 n
b0 m
b0 l
b0 k
1j
1i
1h
0g
0f
0e
b0 d
b0 c
b0 b
b0 a
b0 `
b0 _
b0 ^
b0 ]
bx \
bx [
bx Z
bx Y
bx X
0W
xV
b0 U
b0 T
b0 S
b0 R
b0 Q
b0 P
b0 O
b0 N
b0 M
b0 L
0K
0J
b0 I
0H
b0 G
b0 F
b0 E
b0 D
b0 C
b11 B
bx A
bx @
bx ?
b0 >
b0 =
0<
0;
bx :
09
b0 8
b1 7
b0 6
b0 5
b0 4
b0 3
b0 2
b0 1
b0 0
bx /
0.
b0 -
b0 ,
b0 +
bx *
bx )
b0 (
b0 '
b0 &
b0 %
0$
b0 #
1"
0!
$end
#1000
b111000000000010000010011 ?
b111000000000010000010011 :"
b111000000000010000010011 >"
b100 /
b100 \
b100 D"
b0 :
b0 Y
b0 Z
b0 9"
b0 ="
#2000
b0 *
b0 X
b0 A"
b100 )
b100 [
b100 ?"
1V
#5000
1!
#6000
b100000 X"
#8000
b0 A
b0 ."
b0 U"
b0 @
b0 -"
b0 V"
#10000
0!
0"
#15000
b1110 8
b1110 +"
b1110 j"
b1 C
b1 o
b1 &"
19
1;
b10 6
b10 q
b10 ^"
b111000000000 `"
b1110 c"
b1000 b"
b1110 a"
b10011 k
b1000 %"
b1110 S"
b100 +
b100 W"
b100 o"
b111000000000010000010011 D
b111000000000010000010011 l
b111000000000010000010011 ;"
b111000000000010000010011 _"
b1 F
b1 v
b1 8"
b11 Q
b11 b
b11 1"
b100 %
b100 J"
b100 k"
1!
#17000
b100 *
b100 X
b100 A"
0V
#20000
0!
#25000
b1110 N
b1110 a
b1110 u
b1110 @"
b1110 S
b1110 _
b1110 Q"
b1 ,
b1 $"
b1 E"
1H
b1 R
b1 ^
b1 0"
1J
b1110 G
b1110 w
b1110 7"
b1110 P"
b1000 U
b1000 {
b1000 /"
1!
#26000
b1110000000000011000010011 ?
b1110000000000011000010011 :"
b1110000000000011000010011 >"
b100 :
b100 Y
b100 Z
b100 9"
b100 ="
#27000
b1000 *
b1000 X
b1000 A"
b1000 )
b1000 [
b1000 ?"
#30000
0!
#35000
b11100 8
b11100 +"
b11100 j"
b1110000000000 `"
b11100 c"
b1100 b"
b11100 a"
b1100 %"
b11100 S"
b0 +
b0 W"
b0 o"
b1110000000000011000010011 D
b1110000000000011000010011 l
b1110000000000011000010011 ;"
b1110000000000011000010011 _"
b100 E
b100 ,"
b100 <"
1.
b1110 -
b1110 #"
b1110 Z"
b1110 4
b1110 }
b1110 C"
b1110 Y"
b1000 5
b1000 |
b1000 B"
b1 #
b1 K"
b1 n"
1!
#36000
b111000000000010000010011 ?
b111000000000010000010011 :"
b111000000000010000010011 >"
b1000 :
b1000 Y
b1000 Z
b1000 9"
b1000 ="
#37000
b1100 *
b1100 X
b1100 A"
b1100 )
b1100 [
b1100 ?"
#40000
0!
#45000
b1110 8
b1110 +"
b1110 j"
b1110 +
b1110 W"
b1110 o"
b11100 N
b11100 a
b11100 u
b11100 @"
b111000000000 `"
b1110 c"
b1000 b"
b1110 a"
b1000 %"
b1110 S"
1$
b1110 '
b1110 H"
b1110 l"
b1000 (
b1000 G"
b1000 T"
b11100 S
b11100 _
b11100 Q"
b11100 G
b11100 w
b11100 7"
b11100 P"
b1100 U
b1100 {
b1100 /"
b100 I
b100 x
b100 6"
b100 M"
b111000000000010000010011 D
b111000000000010000010011 l
b111000000000010000010011 ;"
b111000000000010000010011 _"
b1000 E
b1000 ,"
b1000 <"
1!
#46000
b1110000000000010100010011 ?
b1110000000000010100010011 :"
b1110000000000010100010011 >"
b1100 :
b1100 Y
b1100 Z
b1100 9"
b1100 ="
#47000
b10000 *
b10000 X
b10000 A"
b10000 )
b10000 [
b10000 ?"
#50000
0!
#55000
b11100 8
b11100 +"
b11100 j"
b1110000000000 `"
b11100 c"
b1010 b"
b11100 a"
b1010 %"
b11100 S"
b1110 N
b1110 a
b1110 u
b1110 @"
b1110000000000010100010011 D
b1110000000000010100010011 l
b1110000000000010100010011 ;"
b1110000000000010100010011 _"
b1100 E
b1100 ,"
b1100 <"
b1110 S
b1110 _
b1110 Q"
b1110 G
b1110 w
b1110 7"
b1110 P"
b1000 U
b1000 {
b1000 /"
b1000 I
b1000 x
b1000 6"
b1000 M"
b11100 -
b11100 #"
b11100 Z"
b11100 4
b11100 }
b11100 C"
b11100 Y"
b1100 5
b1100 |
b1100 B"
b100 0
b100 ]
b100 ""
1!
#56000
b100001100000000110110011 ?
b100001100000000110110011 :"
b100001100000000110110011 >"
b1000 /
b1000 \
b1000 D"
b10000 :
b10000 Y
b10000 Z
b10000 9"
b10000 ="
#57000
b10100 *
b10100 X
b10100 A"
b10100 )
b10100 [
b10100 ?"
#60000
0!
#65000
b100001100000000000000000 8
b100001100000000000000000 +"
b100001100000000000000000 j"
b1 C
b1 o
b1 &"
19
0;
b0 6
b0 q
b0 ^"
b11100 +
b11100 W"
b11100 o"
b11100 N
b11100 a
b11100 u
b11100 @"
b100001100000 `"
b1000 c"
b11 b"
b1000 a"
b110011 k
b11 %"
b1000 S"
b1100 R"
b11100 '
b11100 H"
b11100 l"
b1100 (
b1100 G"
b1100 T"
b1000 %
b1000 J"
b1000 k"
b1110 -
b1110 #"
b1110 Z"
b1110 4
b1110 }
b1110 C"
b1110 Y"
b1000 5
b1000 |
b1000 B"
b1000 0
b1000 ]
b1000 ""
b11100 S
b11100 _
b11100 Q"
b11100 G
b11100 w
b11100 7"
b11100 P"
b1010 U
b1010 {
b1010 /"
b1100 I
b1100 x
b1100 6"
b1100 M"
b100001100000000110110011 D
b100001100000000110110011 l
b100001100000000110110011 ;"
b100001100000000110110011 _"
b10000 E
b10000 ,"
b10000 <"
1!
#66000
b1100 /
b1100 \
b1100 D"
b10100 :
b10100 Y
b10100 Z
b10100 9"
b10100 ="
#67000
b11000 *
b11000 X
b11000 A"
b11000 )
b11000 [
b11000 ?"
b1110 @
b1110 -"
b1110 V"
#68000
b11100 A
b11100 ."
b11100 U"
#70000
0!
#75000
b101010 N
b101010 a
b101010 u
b101010 @"
b1110 +
b1110 W"
b1110 o"
b10100 E
b10100 ,"
b10100 <"
0J
b1110 S
b1110 _
b1110 Q"
b100001100000000000000000 G
b100001100000000000000000 w
b100001100000000000000000 7"
b100001100000000000000000 P"
b1110 O
b1110 c
b1110 3"
b1110 O"
1e
0j
b11100 T
b11100 `
b11100 N"
b11100 P
b11100 d
b11100 2"
b11100 L"
b11 U
b11 {
b11 /"
b10000 I
b10000 x
b10000 6"
b10000 M"
b11100 -
b11100 #"
b11100 Z"
b11100 4
b11100 }
b11100 C"
b11100 Y"
b1010 5
b1010 |
b1010 B"
b1100 0
b1100 ]
b1100 ""
b1110 '
b1110 H"
b1110 l"
b1000 (
b1000 G"
b1000 T"
b1100 %
b1100 J"
b1100 k"
1!
#76000
b10000 /
b10000 \
b10000 D"
b11000 :
b11000 Y
b11000 Z
b11000 9"
b11000 ="
#77000
b11100 *
b11100 X
b11100 A"
b11100 )
b11100 [
b11100 ?"
#80000
0!
#85000
b11100 +
b11100 W"
b11100 o"
b11100 '
b11100 H"
b11100 l"
b1010 (
b1010 G"
b1010 T"
b10000 %
b10000 J"
b10000 k"
b100001100000000000000000 -
b100001100000000000000000 #"
b100001100000000000000000 Z"
b101010 4
b101010 }
b101010 C"
b101010 Y"
b11 5
b11 |
b11 B"
b10000 0
b10000 ]
b10000 ""
b10100 I
b10100 x
b10100 6"
b10100 M"
b11000 E
b11000 ,"
b11000 <"
1!
#86000
b10100 /
b10100 \
b10100 D"
b11100 :
b11100 Y
b11100 Z
b11100 9"
b11100 ="
#87000
b100000 *
b100000 X
b100000 A"
b100000 )
b100000 [
b100000 ?"
#90000
0!
#95000
b101010 +
b101010 W"
b101010 o"
b11100 E
b11100 ,"
b11100 <"
b11000 I
b11000 x
b11000 6"
b11000 M"
b10100 0
b10100 ]
b10100 ""
b101010 '
b101010 H"
b101010 l"
b11 (
b11 G"
b11 T"
b10100 %
b10100 J"
b10100 k"
1!
#96000
b110001000000000110110011 ?
b110001000000000110110011 :"
b110001000000000110110011 >"
b11000 /
b11000 \
b11000 D"
b100000 :
b100000 Y
b100000 Z
b100000 9"
b100000 ="
#97000
b100100 *
b100100 X
b100100 A"
b100100 )
b100100 [
b100100 ?"
#100000
0!
#105000
b110001000000000000000000 8
b110001000000000000000000 +"
b110001000000000000000000 j"
b110001000000 `"
b1100 c"
b1100 a"
b1100 S"
b1000 R"
b11000 %
b11000 J"
b11000 k"
b11000 0
b11000 ]
b11000 ""
b11100 I
b11100 x
b11100 6"
b11100 M"
b110001000000000110110011 D
b110001000000000110110011 l
b110001000000000110110011 ;"
b110001000000000110110011 _"
b100000 E
b100000 ,"
b100000 <"
1!
#106000
b110001000000001110110011 ?
b110001000000001110110011 :"
b110001000000001110110011 >"
b11100 /
b11100 \
b11100 D"
b100100 :
b100100 Y
b100100 Z
b100100 9"
b100100 ="
#107000
b101000 *
b101000 X
b101000 A"
b101000 )
b101000 [
b101000 ?"
b11100 @
b11100 -"
b11100 V"
b1110 A
b1110 ."
b1110 U"
#110000
0!
#115000
b111 b"
b111 %"
b110001000000001110110011 D
b110001000000001110110011 l
b110001000000001110110011 ;"
b110001000000001110110011 _"
b100100 E
b100100 ,"
b100100 <"
b110001000000000000000000 G
b110001000000000000000000 w
b110001000000000000000000 7"
b110001000000000000000000 P"
0h
1f
0i
1g
b11100 S
b11100 _
b11100 Q"
b11100 O
b11100 c
b11100 3"
b11100 O"
1e
0j
b1110 T
b1110 `
b1110 N"
b1110 P
b1110 d
b1110 2"
b1110 L"
b100000 I
b100000 x
b100000 6"
b100000 M"
b11100 0
b11100 ]
b11100 ""
b11100 %
b11100 J"
b11100 k"
1!
#116000
b100001100000000110110011 ?
b100001100000000110110011 :"
b100001100000000110110011 >"
b100000 /
b100000 \
b100000 D"
b101000 :
b101000 Y
b101000 Z
b101000 9"
b101000 ="
#117000
b101100 *
b101100 X
b101100 A"
b101100 )
b101100 [
b101100 ?"
#120000
0!
#125000
b100001100000000000000000 8
b100001100000000000000000 +"
b100001100000000000000000 j"
b100001100000 `"
b1000 c"
b11 b"
b1000 a"
b11 %"
b1000 S"
b1100 R"
b100000 %
b100000 J"
b100000 k"
b110001000000000000000000 -
b110001000000000000000000 #"
b110001000000000000000000 Z"
b100000 0
b100000 ]
b100000 ""
b111 U
b111 {
b111 /"
b100100 I
b100100 x
b100100 6"
b100100 M"
b100001100000000110110011 D
b100001100000000110110011 l
b100001100000000110110011 ;"
b100001100000000110110011 _"
b101000 E
b101000 ,"
b101000 <"
1!
#126000
b110000011000001110110011 ?
b110000011000001110110011 :"
b110000011000001110110011 >"
b100100 /
b100100 \
b100100 D"
b101100 :
b101100 Y
b101100 Z
b101100 9"
b101100 ="
#127000
b110000 *
b110000 X
b110000 A"
b110000 )
b110000 [
b110000 ?"
b1110 @
b1110 -"
b1110 V"
b11100 A
b11100 ."
b11100 U"
#130000
0!
#135000
b110000011000000000000000 8
b110000011000000000000000 +"
b110000011000000000000000 j"
b110000011000 `"
b1100 c"
b111 b"
b1100 a"
b111 %"
b1100 S"
b11 R"
b110000011000001110110011 D
b110000011000001110110011 l
b110000011000001110110011 ;"
b110000011000001110110011 _"
b101100 E
b101100 ,"
b101100 <"
b100001100000000000000000 G
b100001100000000000000000 w
b100001100000000000000000 7"
b100001100000000000000000 P"
b1110 S
b1110 _
b1110 Q"
b1110 O
b1110 c
b1110 3"
b1110 O"
1h
0f
1i
0g
1e
0j
b11100 T
b11100 `
b11100 N"
b11100 P
b11100 d
b11100 2"
b11100 L"
b11 U
b11 {
b11 /"
b101000 I
b101000 x
b101000 6"
b101000 M"
b111 5
b111 |
b111 B"
b100100 0
b100100 ]
b100100 ""
b100100 %
b100100 J"
b100100 k"
1!
#136000
b1000000100000011000001000110011 ?
b1000000100000011000001000110011 :"
b1000000100000011000001000110011 >"
b101000 /
b101000 \
b101000 D"
b110000 :
b110000 Y
b110000 Z
b110000 9"
b110000 ="
#137000
b110100 *
b110100 X
b110100 A"
b110100 )
b110100 [
b110100 ?"
b11100 @
b11100 -"
b11100 V"
b101010 A
b101010 ."
b101010 U"
#140000
0!
#145000
b1000000100000011000000000000000 8
b1000000100000011000000000000000 +"
b1000000100000011000000000000000 j"
b10 C
b10 o
b10 &"
19
b1000110 N
b1000110 a
b1000110 u
b1000110 @"
b1000000100000011000 `"
b10000001000 c"
b10000000100 b"
b1000 a"
b100000 m
b100 %"
b1000 S"
b111 (
b111 G"
b111 T"
b101000 %
b101000 J"
b101000 k"
b100001100000000000000000 -
b100001100000000000000000 #"
b100001100000000000000000 Z"
b11 5
b11 |
b11 B"
b101000 0
b101000 ]
b101000 ""
b110000011000000000000000 G
b110000011000000000000000 w
b110000011000000000000000 7"
b110000011000000000000000 P"
b11100 S
b11100 _
b11100 Q"
b11100 O
b11100 c
b11100 3"
b11100 O"
b101010 T
b101010 `
b101010 N"
b101010 P
b101010 d
b101010 2"
b101010 L"
b111 U
b111 {
b111 /"
b101100 I
b101100 x
b101100 6"
b101100 M"
b1000000100000011000001000110011 D
b1000000100000011000001000110011 l
b1000000100000011000001000110011 ;"
b1000000100000011000001000110011 _"
b110000 E
b110000 ,"
b110000 <"
1!
#146000
b100000011001101000110011 ?
b100000011001101000110011 :"
b100000011001101000110011 >"
b101100 /
b101100 \
b101100 D"
b110100 :
b110100 Y
b110100 Z
b110100 9"
b110100 ="
#147000
b111000 *
b111000 X
b111000 A"
b111000 )
b111000 [
b111000 ?"
b1110 @
b1110 -"
b1110 V"
#150000
0!
#155000
b100000011001000000000000 8
b100000011001000000000000 +"
b100000011001000000000000 j"
b11 C
b11 o
b11 &"
19
b100000011001 `"
b1000 c"
b10100 b"
b0 m
b1 n
b10100 %"
b11100 N
b11100 a
b11100 u
b11100 @"
b100000011001101000110011 D
b100000011001101000110011 l
b100000011001101000110011 ;"
b100000011001101000110011 _"
b110100 E
b110100 ,"
b110100 <"
b10 R
b10 ^
b10 0"
b1000000100000011000000000000000 G
b1000000100000011000000000000000 w
b1000000100000011000000000000000 7"
b1000000100000011000000000000000 P"
b1110 S
b1110 _
b1110 Q"
b1110 O
b1110 c
b1110 3"
b1110 O"
b100 U
b100 {
b100 /"
b110000 I
b110000 x
b110000 6"
b110000 M"
b110000011000000000000000 -
b110000011000000000000000 #"
b110000011000000000000000 Z"
b1000110 4
b1000110 }
b1000110 C"
b1000110 Y"
b111 5
b111 |
b111 B"
b101100 0
b101100 ]
b101100 ""
b11 (
b11 G"
b11 T"
b101100 %
b101100 J"
b101100 k"
1!
#156000
b100000011010101000110011 ?
b100000011010101000110011 :"
b100000011010101000110011 >"
b110000 /
b110000 \
b110000 D"
b111000 :
b111000 Y
b111000 Z
b111000 9"
b111000 ="
#157000
b111100 *
b111100 X
b111100 A"
b111100 )
b111100 [
b111100 ?"
#160000
0!
#165000
b100000011010000000000000 8
b100000011010000000000000 +"
b100000011010000000000000 j"
b100 C
b100 o
b100 &"
19
b1000110 +
b1000110 W"
b1000110 o"
b10101000000000000000 N
b10101000000000000000 a
b10101000000000000000 u
b10101000000000000000 @"
b100000011010 `"
b10 n
b1000110 '
b1000110 H"
b1000110 l"
b111 (
b111 G"
b111 T"
b110000 %
b110000 J"
b110000 k"
b1000000100000011000000000000000 -
b1000000100000011000000000000000 #"
b1000000100000011000000000000000 Z"
b11100 4
b11100 }
b11100 C"
b11100 Y"
b100 5
b100 |
b100 B"
b110000 0
b110000 ]
b110000 ""
b11 R
b11 ^
b11 0"
b100000011001000000000000 G
b100000011001000000000000 w
b100000011001000000000000 7"
b100000011001000000000000 P"
b10100 U
b10100 {
b10100 /"
b110100 I
b110100 x
b110100 6"
b110100 M"
b100000011010101000110011 D
b100000011010101000110011 l
b100000011010101000110011 ;"
b100000011010101000110011 _"
b111000 E
b111000 ,"
b111000 <"
1!
#166000
b100000011011101000110011 ?
b100000011011101000110011 :"
b100000011011101000110011 >"
b110100 /
b110100 \
b110100 D"
b111100 :
b111100 Y
b111100 Z
b111100 9"
b111100 ="
#167000
b1000000 *
b1000000 X
b1000000 A"
b1000000 )
b1000000 [
b1000000 ?"
#170000
0!
#175000
b100000011011000000000000 8
b100000011011000000000000 +"
b100000011011000000000000 j"
b101 C
b101 o
b101 &"
19
b100000011011 `"
b11 n
b0 N
b0 a
b0 u
b0 @"
b11100 +
b11100 W"
b11100 o"
b100000011011101000110011 D
b100000011011101000110011 l
b100000011011101000110011 ;"
b100000011011101000110011 _"
b111100 E
b111100 ,"
b111100 <"
b100 R
b100 ^
b100 0"
b100000011010000000000000 G
b100000011010000000000000 w
b100000011010000000000000 7"
b100000011010000000000000 P"
b111000 I
b111000 x
b111000 6"
b111000 M"
b100000011001000000000000 -
b100000011001000000000000 #"
b100000011001000000000000 Z"
b10101000000000000000 4
b10101000000000000000 }
b10101000000000000000 C"
b10101000000000000000 Y"
b10100 5
b10100 |
b10100 B"
b110100 0
b110100 ]
b110100 ""
b11100 '
b11100 H"
b11100 l"
b100 (
b100 G"
b100 T"
b110100 %
b110100 J"
b110100 k"
1!
#176000
b100000011100101000110011 ?
b100000011100101000110011 :"
b100000011100101000110011 >"
b111000 /
b111000 \
b111000 D"
b1000000 :
b1000000 Y
b1000000 Z
b1000000 9"
b1000000 ="
#177000
b1000100 *
b1000100 X
b1000100 A"
b1000100 )
b1000100 [
b1000100 ?"
#180000
0!
#185000
b100000011100000000000000 8
b100000011100000000000000 +"
b100000011100000000000000 j"
b110 C
b110 o
b110 &"
19
b10101000000000000000 +
b10101000000000000000 W"
b10101000000000000000 o"
b100000011100 `"
b100 n
b10101000000000000000 '
b10101000000000000000 H"
b10101000000000000000 l"
b10100 (
b10100 G"
b10100 T"
b111000 %
b111000 J"
b111000 k"
b100000011010000000000000 -
b100000011010000000000000 #"
b100000011010000000000000 Z"
b0 4
b0 }
b0 C"
b0 Y"
b111000 0
b111000 ]
b111000 ""
b101 R
b101 ^
b101 0"
b100000011011000000000000 G
b100000011011000000000000 w
b100000011011000000000000 7"
b100000011011000000000000 P"
b111100 I
b111100 x
b111100 6"
b111100 M"
b100000011100101000110011 D
b100000011100101000110011 l
b100000011100101000110011 ;"
b100000011100101000110011 _"
b1000000 E
b1000000 ,"
b1000000 <"
1!
#186000
b100000011101101000110011 ?
b100000011101101000110011 :"
b100000011101101000110011 >"
b111100 /
b111100 \
b111100 D"
b1000100 :
b1000100 Y
b1000100 Z
b1000100 9"
b1000100 ="
#187000
b1001000 *
b1001000 X
b1001000 A"
b1001000 )
b1001000 [
b1001000 ?"
#190000
0!
